Guided Excercise 2
…
Graph 1: This graph shows the distribution of ERAs for each year.

pitching_data$yearID <- as.factor(pitching_data$yearID)
summary_ERA <- summarize(group_by(pitching_data, yearID), Q1=quantile(ERA,.25,na.rm=T),median=median(ERA,na.rm=T),
                         Q3=quantile(ERA,.75,na.rm=T),min=min(ERA),max=max(ERA))
summary_ERA

## # A tibble: 145 x 6
##    yearID    Q1 median    Q3   min   max
##    <fct>  <dbl>  <dbl> <dbl> <dbl> <dbl>
##  1 1871    3.44   4.5   6.51  0     27  
##  2 1872    3.00   4.45  6.07  1.98  11.3
##  3 1873    2.7    3.6   5.43  0     12  
##  4 1874    2.7    3.19  4.5   2.25  24.4
##  5 1875    2.12   3.03  4.73  0     18  
##  6 1876    1.52   2.73  4.5   0     20.2
##  7 1877    2.67   3.51  4.42  0.75  18  
##  8 1878    2.08   2.46  3.87  1.51  18  
##  9 1879    2.26   2.57  3.68  1.57  81  
## 10 1880    1.75   2.57  4.08  0     15  
## #  with 135 more rows
…
