Guided Exercise 2
…
Graph 1.A. is a boxplot that shows the distribution of Earned Run Averages (ERAs) in the MLB and how they have changed over time.

Exercise 1.B.

#Exercise 1.B. 
summary_pitching <- summarize(group_by(pitching_data, yearID), median=median(ERA,na.rm=T)) #dont need to include Q1, Q3, Min/Max
summary_pitching

## # A tibble: 145 x 2
##    yearID median
##    <fct>   <dbl>
##  1 1871     4.5 
##  2 1872     4.45
##  3 1873     3.6 
##  4 1874     3.19
##  5 1875     3.03
##  6 1876     2.73
##  7 1877     3.51
##  8 1878     2.46
##  9 1879     2.57
## 10 1880     2.57
## #  with 135 more rows
…
Graph 1.B. is a line chart that shows how the median ERA has changed over time in the MLB. Here we can see that for over a century, the median ERA has changed very little despite periods of greater volatility.

Exercise 2

#Exercise 2
summary_pitching <- summarize(group_by(pitching_data, yearID), median=median(ERA,na.rm=T), Q1=quantile(ERA,.25,na.rm=T), Q3=quantile(ERA,.75,na.rm=T))
summary_pitching

## # A tibble: 145 x 4
##    yearID median    Q1    Q3
##    <fct>   <dbl> <dbl> <dbl>
##  1 1871     4.5   3.44  6.51
##  2 1872     4.45  3.00  6.07
##  3 1873     3.6   2.7   5.43
##  4 1874     3.19  2.7   4.5 
##  5 1875     3.03  2.12  4.73
##  6 1876     2.73  1.52  4.5 
##  7 1877     3.51  2.67  4.42
##  8 1878     2.46  2.08  3.87
##  9 1879     2.57  2.26  3.68
## 10 1880     2.57  1.75  4.08
## #  with 135 more rows
…
